<?xml version="1.0" encoding="UTF-8" standalone="no"?>
<svg
   xmlns:dc="http://purl.org/dc/elements/1.1/"
   xmlns:cc="http://creativecommons.org/ns#"
   xmlns:rdf="http://www.w3.org/1999/02/22-rdf-syntax-ns#"
   xmlns:svg="http://www.w3.org/2000/svg"
   xmlns="http://www.w3.org/2000/svg"
   xmlns:sodipodi="http://sodipodi.sourceforge.net/DTD/sodipodi-0.dtd"
   xmlns:inkscape="http://www.inkscape.org/namespaces/inkscape"
   viewBox="0 0 64 64"
   enable-background="new 0 0 64 64"
   version="1.1"
   id="svg34"
   sodipodi:docname="icon_bw.svg"
   inkscape:version="0.92.1 r15371">
  <metadata
     id="metadata40">
    <rdf:RDF>
      <cc:Work
         rdf:about="">
        <dc:format>image/svg+xml</dc:format>
        <dc:type
           rdf:resource="http://purl.org/dc/dcmitype/StillImage" />
        <dc:title></dc:title>
      </cc:Work>
    </rdf:RDF>
  </metadata>
  <defs
     id="defs38" />
  <sodipodi:namedview
     pagecolor="#000000"
     bordercolor="#666666"
     borderopacity="1"
     objecttolerance="10"
     gridtolerance="10"
     guidetolerance="10"
     inkscape:pageopacity="0"
     inkscape:pageshadow="2"
     inkscape:window-width="1920"
     inkscape:window-height="983"
     id="namedview36"
     showgrid="false"
     inkscape:zoom="7.375"
     inkscape:cx="21.121476"
     inkscape:cy="36.035277"
     inkscape:window-x="0"
     inkscape:window-y="27"
     inkscape:window-maximized="1"
     inkscape:current-layer="svg34" />
  <path
     d="m43.9 3.5c0 0-3.9-4.6-10.2-3.3-6.5 1.4-24 5.4-24 5.4l9.9 3.9 24.3-6"
     fill="#d9e3e8"
     id="path2"
     style="fill:#ffffff;fill-opacity:1" />
  <path
     d="m48.5 8.9c2.2-.7 5.2 1.7 6.8 6 1.4 3.9.7 8.8-1.6 9.7l-3.1.6-4.9-15.7 2.8-.6"
     fill="#699635"
     id="path4"
     style="fill:#ffffff;fill-opacity:1" />
  <path
     d="m45.7 9.5c2.2-.7 5.2 1.7 6.8 6 1.4 3.9.7 8.8-1.6 9.7-2.1.8-5.5-1.6-6.7-6.1-1.2-4.4-.9-8.8 1.5-9.6"
     fill="#83bf4f"
     id="path6"
     style="fill:#000000;fill-opacity:1" />
  <path
     d="m44.4 11.9c1.7-.6 4.2 1.4 5.4 4.8 1.1 3.1.6 7-1.3 7.7l-2.4.5-3.9-12.6 2.2-.4"
     fill="#699635"
     id="path8"
     style="fill:#ffffff;fill-opacity:1" />
  <path
     d="m52.6 51.9c-1.1 0-2.1-.2-3.2-.5-4.5-1.6-12.8-10.1-13.7-11.1l2.6-2.5c2.3 2.4 9.1 9 12.3 10.2 1.9.7 4.3.1 5.1-.6 1.8-1.5 2.7-4.2 2.6-7.1-.1-2.8-1.3-5.3-3-6.5-5.8-4.1-8.3-10.4-8.3-10.4.3-2.2 2.2-1.7 2.2-1.7 0 .1 1.7 5 8.3 9.2 2.7 1.7 4.3 5.3 4.5 9.3.2 4-1.3 7.8-3.9 10-1.2 1-3.3 1.7-5.5 1.7"
     fill="#83bf4f"
     id="path10"
     style="fill:#ffffff;fill-opacity:1" />
  <path
     d="m51.6 34.2c0 0-.3 4-6.9 6.2-4.3 1.4-23.4 7.5-23.4 7.5l6.7-6.1 23.6-7.6"
     fill="#c7d3d8"
     id="path12"
     style="fill:#ffffff;fill-opacity:1" />
  <path
     d="m21.1 24.8l-1.5-15.2c0 0-10.2-11.3-16.2 3.3-1.4 3.5-.4 11.6.4 15.4.9 3.9 3.8 11.6 6.6 14.5 12.1 12.3 17.5-1 17.5-1l-6.1-14.5 23.3-6.6-.5-2.9-23.5 7"
     fill="#93a2aa"
     id="path14"
     style="fill:#ffffff;fill-opacity:1" />
  <path
     fill="#c7d3d8"
     d="m43.9 3.5l.8 14.3-23.6 7-1.5-15.2z"
     id="path16"
     style="fill:#000000;fill-opacity:1" />
  <path
     fill="#d9e3e8"
     d="m51.6 34.2l-23.6 7.6-6.2-14.5 23.4-6.6z"
     id="path18"
     style="fill:#000000;fill-opacity:1" />
  <g
     fill="#3e4347"
     id="g24"
     style="fill:#ffffff;fill-opacity:1">
    <path
       d="m31.5 29.6c-.1 0-.2 0-.4-.1-.6-.2-1-.9-.8-1.5 0 0 .8-2.7 0-5-.8-2.1-2.5-3.3-2.5-3.3-.6-.4-.7-1.1-.4-1.6.4-.6 1.1-.7 1.7-.4.1.1 2.5 1.5 3.5 4.5 1.1 3 .1 6.4 0 6.5-.1.6-.6.9-1.1.9"
       id="path20"
       style="fill:#ffffff;fill-opacity:1" />
    <path
       d="m38.3 27.9c-.1 0-.2 0-.4-.1-.6-.2-1-.9-.8-1.5 0 0 .8-2.7 0-5-.8-2.1-2.5-3.3-2.5-3.3-.6-.4-.7-1.1-.4-1.6.4-.6 1.1-.7 1.7-.4.1.1 2.5 1.5 3.5 4.5 1.1 3 .1 6.4 0 6.5-.1.5-.6.9-1.1.9"
       id="path22"
       style="fill:#ffffff;fill-opacity:1" />
  </g>
  <path
     d="m12.7 20.7c1.7-.6 4.2 1.4 5.4 4.8 1.1 3.1.6 7-1.3 7.7l-3.3.7-4.1-12.6 3.3-.6"
     fill="#699635"
     id="path26"
     style="fill:#ffffff;fill-opacity:1" />
  <path
     d="m7 20.2c2.2-.7 5.2 1.7 6.8 6 1.4 3.9.7 8.8-1.6 9.7l-3.1.6-4.9-15.8 2.8-.5"
     fill="#83bf4f"
     id="path28"
     style="fill:#000000;fill-opacity:1" />
  <path
     d="m4.2 20.7c2.2-.7 5.2 1.7 6.8 6 1.4 3.9.7 8.8-1.6 9.7-2.1.8-5.5-1.6-6.7-6.1-1.2-4.3-.9-8.8 1.5-9.6"
     fill="#699635"
     id="path30"
     style="fill:#ffffff;fill-opacity:1" />
  <path
     d="m21.3 64c-6 0-13.7-7.6-16.2-11.6-1.4-2.3-1.1-4.2-.6-5.3 1.1-2.3 3.7-3.5 5.9-4.3l3.2 2.8c-1.7.3-5 1.3-5.8 3-.1.2-.4.8.4 2 2.4 3.9 9.1 9.9 13.1 9.9 2 0 3.5-1 4.3-3.1 1.6-4.1 0-11.2-5.4-15.9-3-2.6-4.8-6.7-4.9-9.1 0 0 .4-1.8 1.9-1.5 0 0 3.1 6 5.4 8 6.8 5.9 8.3 14.7 6.3 19.8-1.2 3.3-4 5.3-7.6 5.3"
     fill="#83bf4f"
     id="path32"
     style="fill:#ffffff;fill-opacity:1" />
</svg>
